Exploring data and models visually Biometrics by the Beach 2017
…
What's the difference between `facet_wrap()` and `facet_grid()`?

---

# Map example -- whale sharks

```r
whalesharks <- read_csv("../data/whaleshark-encounters.csv")
library(lubridate) 
ningaloo <- whalesharks %>% 
  filter(grepl("Ningaloo", Locality)) %>% 
  mutate(date=ymd(paste(`Year Collected`, `Month Collected`, 
`Day Collected`, sep="-")))
ningaloo %>% select(date, `Marked Individual`, Longitude, Latitude)
#> # A tibble: 5,195 x 4
#>          date `Marked Individual` Longitude  Latitude
#>        <date>               <chr>     <dbl>     <dbl>
#>  1 2013-08-21               A-720  113.9015 -21.90130
#>  2 2013-08-21               A-793  113.9015 -21.90130
#>  3 2013-07-27               A-749  113.9015 -21.90130
#>  4 2013-07-23               A-907  113.8903 -22.00913
#>  5 2013-07-23               A-822  113.8821 -22.06176
#>  6 2013-07-23               A-356  113.9015 -21.90130
#>  7 2013-07-23               A-720  113.9048 -21.95900
#>  8 2013-07-20               A-899  113.9015 -21.90130
#>  9 2013-07-20               A-666  113.9015 -21.90130
#> 10 2013-07-20               A-900  113.9013 -21.97340
#> # ... with 5,185 more rows
```
…
