Exploring data and models visually Biometrics by the Beach 2017
…
---
# The pipe operator `%>%`

- `x %>% f(y)` is the same as `f(x, y)`
- part of `dplyr` package
- pipes allow the code to be *read* like a sequence of operations

Example:

```r
student2012.sub <- read_rds("../data/student_sub.rds")
student2012.sub %>% 
  group_by(CNT) %>% 
  tally()
#> # A tibble: 43 x 2
#>     CNT     n
#>   <chr> <int>
#> 1   ARE 11500
#> 2   AUS 14481
#> 3   AUT  4755
#> 4   BEL  8597
#> 5   BGR  5282
#> # ... with 38 more rows
```
…
---
class: inverse middle 
# Your turn 3

What are the variables? What are the records?

```
#> # A tibble: 48 x 35
#>            ID  YEAR MONTH ELEMENT VALUE1 VALUE2 VALUE3 VALUE4 VALUE5
#>         <chr> <int> <chr>   <chr>  <int>  <int>  <int>  <int>  <int>
#> 1 ASN00090015  2016    01    TMAX    209    195    193    202    206
#> 2 ASN00090015  2016    01    TMIN    175    145    162    167    161
#> 3 ASN00090015  2016    01    PRCP      0      0      0      0      0
#> 4 ASN00090015  2016    01    TAVG    166    174    175    177    178
#> 5 ASN00090015  2016    02    TMAX    217    239    185    192    220
#> # ... with 43 more rows, and 26 more variables: VALUE6 <int>,
#> #   VALUE7 <int>, VALUE8 <int>, VALUE9 <int>, VALUE10 <int>,
#> #   VALUE11 <int>, VALUE12 <int>, VALUE13 <int>, VALUE14 <int>,
#> #   VALUE15 <int>, VALUE16 <int>, VALUE17 <int>, VALUE18 <int>,
#> #   VALUE19 <int>, VALUE20 <int>, VALUE21 <int>, VALUE22 <int>,
#> #   VALUE23 <int>, VALUE24 <int>, VALUE25 <int>, VALUE26 <int>,
#> #   VALUE27 <int>, VALUE28 <int>, VALUE29 <int>, VALUE30 <int>,
#> #   VALUE31 <int>
```
…
---
# Gather Column Names into Long Form

```r
gather(genes, variable, expr, -id) 
#> # A tibble: 33 x 3
#>       id variable      expr
#>    <chr>    <chr>     <dbl>
#> 1 Gene 1  WI-6.R1 2.1824242
#> 2 Gene 2  WI-6.R1 1.4642236
#> 3 Gene 3  WI-6.R1 2.0317925
#> 4 Gene 1  WI-6.R2 2.2042219
#> 5 Gene 2  WI-6.R2 0.5854472
#> # ... with 28 more rows
```

---
# Separate Columns

```r
genes %>%
  gather(variable, expr, -id) %>%
  separate(variable, c("trt", "leftover"), "-") 
#> # A tibble: 33 x 4
#>       id   trt leftover      expr
#> *  <chr> <chr>    <chr>     <dbl>
#> 1 Gene 1    WI     6.R1 2.1824242
#> 2 Gene 2    WI     6.R1 1.4642236
#> 3 Gene 3    WI     6.R1 2.0317925
#> 4 Gene 1    WI     6.R2 2.2042219
#> 5 Gene 2    WI     6.R2 0.5854472
#> # ... with 28 more rows
```

---

```r
genes %>%
  gather(variable, expr, -id) %>%
  separate(variable, c("trt", "leftover"), "-") %>%
  separate(leftover, c("time", "rep"), "\\.") 
#> # A tibble: 33 x 5
#>       id   trt  time   rep      expr
#> *  <chr> <chr> <chr> <chr>     <dbl>
#> 1 Gene 1    WI     6    R1 2.1824242
#> 2 Gene 2    WI     6    R1 1.4642236
#> 3 Gene 3    WI     6    R1 2.0317925
#> 4 Gene 1    WI     6    R2 2.2042219
#> 5 Gene 2    WI     6    R2 0.5854472
#> # ... with 28 more rows
```
…
